# A tibble: 3,852 × 7
   hisco_1 stat      value     n pct_of_train pct_cum_sum n_corrected
   <chr>   <chr>     <dbl> <int>        <dbl>       <dbl>       <dbl>
 1 -0001   Accuracy  0.998 17707       0.0443      0.0443    2790213.
 2 -0001   F1 score  0.998 17707       0.0443      0.0885    2790213.
 3 -0001   Precision 0.998 17707       0.0443      0.133     2790213.
 4 -0001   Recall    0.998 17707       0.0443      0.177     2790213.
 5 61110   Accuracy  0.992 11234       0.0281      0.205     1770218.
 6 61110   F1 score  0.993 11234       0.0281      0.233     1770218.
 7 61110   Precision 0.993 11234       0.0281      0.261     1770218.
 8 61110   Recall    0.995 11234       0.0281      0.289     1770218.
 9 99910   Accuracy  0.993  6014       0.0150      0.304      947667.
10 99910   F1 score  0.993  6014       0.0150      0.319      947667.
# ℹ 3,842 more rows
# ℹ Use `print(n = ...)` to see more rows
# A tibble: 3,852 × 7
   hisco_1 stat      value     n pct_of_train pct_cum_sum n_corrected
   <chr>   <chr>     <dbl> <int>        <dbl>       <dbl>       <dbl>
 1 -0001   Accuracy  0.998 17707       0.0443      0.0443    2790213.
 2 -0001   F1 score  0.998 17707       0.0443      0.0885    2790213.
 3 -0001   Precision 0.998 17707       0.0443      0.133     2790213.
 4 -0001   Recall    0.998 17707       0.0443      0.177     2790213.
 5 61110   Accuracy  0.992 11234       0.0281      0.205     1770218.
 6 61110   F1 score  0.993 11234       0.0281      0.233     1770218.
 7 61110   Precision 0.993 11234       0.0281      0.261     1770218.
 8 61110   Recall    0.995 11234       0.0281      0.289     1770218.
 9 99910   Accuracy  0.993  6014       0.0150      0.304      947667.
10 99910   F1 score  0.993  6014       0.0150      0.319      947667.
# ℹ 3,842 more rows
# ℹ Use `print(n = ...)` to see more rows
# A tibble: 3,852 × 7
   hisco_1 stat      value     n pct_of_train pct_cum_sum n_corrected
   <chr>   <chr>     <dbl> <int>        <dbl>       <dbl>       <dbl>
 1 -0001   Accuracy  0.998 17707       0.0443      0.0443    2790213.
 2 -0001   F1 score  0.998 17707       0.0443      0.0885    2790213.
 3 -0001   Precision 0.998 17707       0.0443      0.133     2790213.
 4 -0001   Recall    0.998 17707       0.0443      0.177     2790213.
 5 61110   Accuracy  0.992 11234       0.0281      0.205     1770218.
 6 61110   F1 score  0.993 11234       0.0281      0.233     1770218.
 7 61110   Precision 0.993 11234       0.0281      0.261     1770218.
 8 61110   Recall    0.995 11234       0.0281      0.289     1770218.
 9 99910   Accuracy  0.993  6014       0.0150      0.304      947667.
10 99910   F1 score  0.993  6014       0.0150      0.319      947667.
# ℹ 3,842 more rows
# ℹ Use `print(n = ...)` to see more rows
# A tibble: 3,852 × 8
   hisco_1 stat      value     n pct_of_train pct_cum_sum n_corrected ses_value
   <chr>   <chr>     <dbl> <int>        <dbl>       <dbl>       <dbl>     <dbl>
 1 -0001   Accuracy  0.998 17707       0.0443      0.0443    2790213.      NA  
 2 -0001   F1 score  0.998 17707       0.0443      0.0885    2790213.      NA  
 3 -0001   Precision 0.998 17707       0.0443      0.133     2790213.      NA  
 4 -0001   Recall    0.998 17707       0.0443      0.177     2790213.      NA  
 5 61110   Accuracy  0.992 11234       0.0281      0.205     1770218.      49.9
 6 61110   F1 score  0.993 11234       0.0281      0.233     1770218.      49.9
 7 61110   Precision 0.993 11234       0.0281      0.261     1770218.      49.9
 8 61110   Recall    0.995 11234       0.0281      0.289     1770218.      49.9
 9 99910   Accuracy  0.993  6014       0.0150      0.304      947667.      57.3
10 99910   F1 score  0.993  6014       0.0150      0.319      947667.      57.3
# ℹ 3,842 more rows
# ℹ Use `print(n = ...)` to see more rows
